{
  "name": "",
  "css_prefix_text": "icon-",
  "css_use_suffix": false,
  "hinting": true,
  "units_per_em": 1000,
  "ascent": 850,
  "copyright": "wofh-tools.ru",
  "glyphs": [
    {
      "uid": "5d2d07f112b8de19f2c0dbfec3e42c05",
      "css": "loader",
      "code": 59405,
      "src": "fontelico"
    },
    {
      "uid": "bf882b30900da12fca090d9796bc3030",
      "css": "mail",
      "code": 59400,
      "src": "fontawesome"
    },
    {
      "uid": "474656633f79ea2f1dad59ff63f6bf07",
      "css": "star",
      "code": 59402,
      "src": "fontawesome"
    },
    {
      "uid": "d17030afaecc1e1c22349b99f3c4992a",
      "css": "star-empty",
      "code": 59403,
      "src": "fontawesome"
    },
    {
      "uid": "12f4ece88e46abd864e40b35e05b11cd",
      "css": "ok",
      "code": 59399,
      "src": "fontawesome"
    },
    {
      "uid": "5211af474d3a9848f67f945e2ccaf143",
      "css": "cancel",
      "code": 59414,
      "src": "fontawesome"
    },
    {
      "uid": "ce3cf091d6ebd004dd0b52d24074e6e3",
      "css": "help",
      "code": 59398,
      "src": "fontawesome"
    },
    {
      "uid": "e15f0d620a7897e2035c18c80142f6d9",
      "css": "link-ext",
      "code": 59404,
      "src": "fontawesome"
    },
    {
      "uid": "c76b7947c957c9b78b11741173c8349b",
      "css": "attention",
      "code": 59395,
      "src": "fontawesome"
    },
    {
      "uid": "b013f6403e5ab0326614e68d1850fd6b",
      "css": "fullscreen",
      "code": 59401,
      "src": "fontawesome"
    },
    {
      "uid": "d870630ff8f81e6de3958ecaeac532f2",
      "css": "left-open",
      "code": 59406,
      "src": "fontawesome"
    },
    {
      "uid": "399ef63b1e23ab1b761dfbb5591fa4da",
      "css": "right-open",
      "code": 59413,
      "src": "fontawesome"
    },
    {
      "uid": "63b3012c8cbe3654ba5bea598235aa3a",
      "css": "angle-double-up",
      "code": 59394,
      "src": "fontawesome"
    },
    {
      "uid": "dd6c6b221a1088ff8a9b9cd32d0b3dd5",
      "css": "check",
      "code": 59407,
      "src": "fontawesome"
    },
    {
      "uid": "4b900d04e8ab8c82f080c1cfbac5772c",
      "css": "uncheck",
      "code": 59408,
      "src": "fontawesome"
    },
    {
      "uid": "422e07e5afb80258a9c4ed1706498f8a",
      "css": "check-circle",
      "code": 59409,
      "src": "fontawesome"
    },
    {
      "uid": "81bb68665e8e595505272a746db07c7a",
      "css": "uncheck-circle",
      "code": 59410,
      "src": "fontawesome"
    },
    {
      "uid": "06ddc67d609c477cd5524a7238d7850d",
      "css": "frown",
      "code": 59397,
      "src": "fontawesome"
    },
    {
      "uid": "a204f0fa972408eaae5a363c444991b2",
      "css": "login",
      "code": 59411,
      "src": "entypo"
    },
    {
      "uid": "2d76f2c8d13be40694ecadfea7fb83c3",
      "css": "logout",
      "code": 59412,
      "src": "entypo"
    },
    {
      "uid": "zc0c8s0nyweeeo9i8a3rucu7alwxt56r",
      "css": "wrench",
      "code": 59393,
      "src": "modernpics"
    },
    {
      "uid": "0ohst63cgq1mf1syayvfl8mphms8dbes",
      "css": "clock",
      "code": 59392,
      "src": "modernpics"
    },
    {
      "uid": "b10e25220faa78c808527a4ba8b5c0f9",
      "css": "lock",
      "code": 59396,
      "src": "mfglabs"
    },
    {
      "uid": "08fcae555c22437a112411038ac28e16",
      "css": "chart",
      "code": 59416,
      "src": "elusive"
    }
  ]
}