<?xml version="1.0" encoding="utf-8"?>
<!-- Generator: Adobe Illustrator 21.0.0, SVG Export Plug-In . SVG Version: 6.00 Build 0)  -->
<svg version="1.1" id="Capa_1" xmlns="http://www.w3.org/2000/svg" xmlns:xlink="http://www.w3.org/1999/xlink" x="0px" y="0px"
	 viewBox="0 0 16 16" style="enable-background:new 0 0 16 16;" xml:space="preserve">
<g fill="currentColor">
	<path d="M15.7,3.7l-1.4-1.4C14.1,2.1,13.9,2,13.6,2c-0.3,0-0.5,0.1-0.7,0.3L6.1,8.9l-3-3C2.9,5.8,2.7,5.7,2.4,5.7
		c-0.3,0-0.5,0.1-0.7,0.3L0.3,7.3C0.1,7.5,0,7.7,0,8c0,0.3,0.1,0.5,0.3,0.7L4,12.3l1.4,1.4C5.6,13.9,5.9,14,6.1,14
		c0.3,0,0.5-0.1,0.7-0.3l1.4-1.4L15.7,5C15.9,4.8,16,4.6,16,4.3C16,4.1,15.9,3.8,15.7,3.7z"/>
</g>
</svg>
